{
    "KPlugin": {
        "Id": "rocs_transformedges",
        "Name": "Transform Edges",
        "Name[bs]": "Trasformiši ivice",
        "Name[ca@valencia]": "Transforma les arestes",
        "Name[ca]": "Transforma les arestes",
        "Name[da]": "Transformér kanter",
        "Name[de]": "Kanten umformen",
        "Name[el]": "Μετασχηματισμός ακμών",
        "Name[en_GB]": "Transform Edges",
        "Name[es]": "Transformar aristas",
        "Name[et]": "Seoste teisendamine",
        "Name[eu]": "Transformatu ertzak",
        "Name[fi]": "Muunna välit",
        "Name[fr]": "Transformer des arêtes",
        "Name[gl]": "Transformar as arestas",
        "Name[hu]": "Élek átalakítása",
        "Name[it]": "Trasforma archi",
        "Name[ka]": "კიდეების გარდაქმნა",
        "Name[kk]": "Қырларын түрлендіру",
        "Name[km]": "ប្លែង​គែម",
        "Name[ko]": "변 변형",
        "Name[lt]": "Transformuoti briaunas",
        "Name[lv]": "Transformēt šķautnes",
        "Name[nb]": "Omform kanter",
        "Name[nds]": "Kanten wanneln",
        "Name[nl]": "Kanten transformeren",
        "Name[pl]": "Przekształć krawędzie",
        "Name[pt]": "Transformar as Arestas",
        "Name[pt_BR]": "Transformar os cantos",
        "Name[ru]": "Преобразование рёбер",
        "Name[sk]": "Transformácia hrán",
        "Name[sl]": "Preoblikuj povezave",
        "Name[sv]": "Transformera kanter",
        "Name[tr]": "Kenarları Dönüştür",
        "Name[uk]": "Перетворення ребер",
        "Name[x-test]": "xxTransform Edgesxx",
        "Name[zh_CN]": "转换边",
        "Name[zh_TW]": "轉換邊緣",
        "Version": "0.2"
    }
}
