{
    "KPlugin": {
        "Id": "rocs_generategraphplugin",
        "Name": "Generate Graph",
        "Name[bg]": "Създаване на графика",
        "Name[bs]": "Generiši Graf",
        "Name[ca@valencia]": "Genera el graf",
        "Name[ca]": "Genera el graf",
        "Name[cs]": "Vygenerovat graf",
        "Name[da]": "Generér graf",
        "Name[de]": "Graphen erstellen",
        "Name[el]": "Δημιουργία γράφου",
        "Name[en_GB]": "Generate Graph",
        "Name[es]": "Generar grafo",
        "Name[et]": "Graafi genereerimine",
        "Name[eu]": "Sortu grafikoa",
        "Name[fi]": "Generoi graafi",
        "Name[fr]": "Générer un graphe",
        "Name[gl]": "Xerar un gráfico",
        "Name[hu]": "Gráf készítése",
        "Name[it]": "Genera grafo",
        "Name[ka]": "გრაფიკის გენერაცია",
        "Name[kk]": "Графты құру",
        "Name[km]": "បង្កើត​ក្រាហ្វ",
        "Name[ko]": "그래프 생성",
        "Name[lt]": "Generuoti grafiką",
        "Name[lv]": "Ģenerēt grafu",
        "Name[mr]": "आलेख बनवा",
        "Name[nb]": "Lag graf",
        "Name[nds]": "Diagramm opstellen",
        "Name[nl]": "Graaf genereren",
        "Name[pl]": "Generuj graf",
        "Name[pt]": "Gerar um Grafo",
        "Name[pt_BR]": "Gerar o grafo",
        "Name[ru]": "Построитель графа",
        "Name[sk]": "Generovať graf",
        "Name[sl]": "Ustvari graf",
        "Name[sv]": "Skapa graf",
        "Name[tr]": "Grafik Oluştur",
        "Name[ug]": "گرافنى ھاسىل قىل",
        "Name[uk]": "Створення графу",
        "Name[x-test]": "xxGenerate Graphxx",
        "Name[zh_CN]": "生成图",
        "Name[zh_TW]": "產生圖形",
        "Version": "0.2"
    }
}
