{
    "KPlugin": {
        "Id": "rocs_gmlfileformat",
        "Name": "GML File Format",
        "Name[ca@valencia]": "Format de fitxer GML",
        "Name[ca]": "Format de fitxer GML",
        "Name[cs]": "Formát souboru GML",
        "Name[de]": "GML-Dateiformat",
        "Name[el]": "Τύπος αποθήκευσης αρχείων GML",
        "Name[en_GB]": "GML File Format",
        "Name[es]": "Formato de archivo GML",
        "Name[et]": "GML-failivorming",
        "Name[eu]": "GML fitxategi-formatua",
        "Name[fi]": "GML-tiedostomuoto",
        "Name[fr]": "Format de fichier GML",
        "Name[gl]": "Formato de ficheiro GML",
        "Name[it]": "Formato di file GML",
        "Name[ka]": "GML ფაილის ფორმატი",
        "Name[ko]": "GML 파일 형식",
        "Name[nl]": "GML-bestandsformaat",
        "Name[pl]": "Format pliku GML",
        "Name[pt]": "Formato de Ficheiro GML",
        "Name[pt_BR]": "Formato de arquivo GML",
        "Name[ru]": "Поддержка файлов графов GML",
        "Name[sk]": "Formát súborov GML",
        "Name[sl]": "Vrsta datotek GML",
        "Name[sv]": "GML-filformat",
        "Name[tr]": "GML Dosya Biçimi",
        "Name[uk]": "формат файлів GML",
        "Name[x-test]": "xxGML File Formatxx",
        "Name[zh_CN]": "GML 文件格式",
        "Name[zh_TW]": "GML 檔案格式"
    }
}
